First contact with the data on R · From Stata to R
…
As you can see, if your project is in a folder and if you stored you datasets in the Bases_Used subfolder, this code will work automatically since here detects the path. Now, we have stored the four datasets in four objects called data.frames. To me, this simple thing is an advantage on Stata where storing multiple datasets in the same time is not intuitive at all.

Merge dataframes

We want to have a unique dataset to make descriptive statistics and econometrics (we will just do descriptive statistics in this post). Therefore, we will merge these datasets together, first by using the dplyr package. This package is one of the references for data manipulation. It is extremely useful and much more easy to use than base R. You may find a cheatsheet (i.e. a recap of the functions) for this package here, along with cheatsheets of many other great packages.

First, we want to regroup base1 and base2. To do so, we just need to put one under the other and to “stick” them together with bind_rows and we observe the result:

library(dplyr)
base_created <- bind_rows(base1, base2)
base_created

## # A tibble: 23 x 6
##     hhid indidy1 surname   name     gender  wage
##    <dbl>   <dbl> <chr>     <chr>     <dbl> <dbl>
##  1     1       1 BROWN     Robert        1  2000
##  2     1       2 JONES     Michael       1  2100
##  3     1       3 MILLER    William       1  2300
##  4     1       4 DAVIS     David         1  1800
##  5     2       1 RODRIGUEZ Mary          2  3600
##  6     2       2 MARTINEZ  Patricia      2  3500
##  7     2       3 WILSON    Linda         2  1900
##  8     2       4 ANDERSON  Richard       1  1900
##  9     3       1 THOMAS    Charles       1  1800
## 10     3       2 TAYLOR    Barbara       2  1890
## # … with 13 more rows

As you can see, we obtain a dataframe with 6 columns (like each table separately) and 23 rows: 18 in the first table, 5 in the second table. Now, we merge this dataframe with base3. base_created and base3 only have one column in common (hhid) so we will need to specify that we want to merge these two bases by this column:

base_created <- left_join(base_created, base3, by = "hhid")
base_created

## # A tibble: 23 x 7
##     hhid indidy1 surname   name     gender  wage location
##    <dbl>   <dbl> <chr>     <chr>     <dbl> <dbl> <chr>   
##  1     1       1 BROWN     Robert        1  2000 France  
##  2     1       2 JONES     Michael       1  2100 France  
##  3     1       3 MILLER    William       1  2300 France  
##  4     1       4 DAVIS     David         1  1800 France  
##  5     2       1 RODRIGUEZ Mary          2  3600 England 
##  6     2       2 MARTINEZ  Patricia      2  3500 England 
##  7     2       3 WILSON    Linda         2  1900 England 
##  8     2       4 ANDERSON  Richard       1  1900 England 
##  9     3       1 THOMAS    Charles       1  1800 Spain   
## 10     3       2 TAYLOR    Barbara       2  1890 Spain   
## # … with 13 more rows
…
# rename the second column of base_created and of base4
colnames(base_created)[2] <- "indid"
colnames(base4)[2] <- "indid"

# create the column "year", that will take the value 2019 
# for base_created and 2020 for base4
base_created$year <- 2019
base4$year <- 2020

From this point, we can merge these two dataframes:

base_created2 <- bind_rows(base_created, base4)
base_created2

## # A tibble: 46 x 8
##     hhid indid surname   name     gender  wage location  year
##    <dbl> <dbl> <chr>     <chr>     <dbl> <dbl> <chr>    <dbl>
##  1     1     1 BROWN     Robert        1  2000 France    2019
##  2     1     2 JONES     Michael       1  2100 France    2019
##  3     1     3 MILLER    William       1  2300 France    2019
##  4     1     4 DAVIS     David         1  1800 France    2019
##  5     2     1 RODRIGUEZ Mary          2  3600 England   2019
##  6     2     2 MARTINEZ  Patricia      2  3500 England   2019
##  7     2     3 WILSON    Linda         2  1900 England   2019
##  8     2     4 ANDERSON  Richard       1  1900 England   2019
##  9     3     1 THOMAS    Charles       1  1800 Spain     2019
## 10     3     2 TAYLOR    Barbara       2  1890 Spain     2019
## # … with 36 more rows

But we have many missing values for the new rows because base4 only contained three columns. We want to have a data frame arranged by household then by individual and finally by year. Using only dplyr functions, we can do:

base_created2 <- base_created2 %>% 
  group_by(hhid, indid) %>% 
  arrange(hhid, indid, year) %>%
  ungroup()
base_created2

## # A tibble: 46 x 8
##     hhid indid surname   name    gender  wage location  year
##    <dbl> <dbl> <chr>     <chr>    <dbl> <dbl> <chr>    <dbl>
##  1     1     1 BROWN     Robert       1  2000 France    2019
##  2     1     1 <NA>      <NA>        NA  2136 <NA>      2020
##  3     1     2 JONES     Michael      1  2100 France    2019
##  4     1     2 <NA>      <NA>        NA  2362 <NA>      2020
##  5     1     3 MILLER    William      1  2300 France    2019
##  6     1     3 <NA>      <NA>        NA  2384 <NA>      2020
##  7     1     4 DAVIS     David        1  1800 France    2019
##  8     1     4 <NA>      <NA>        NA  2090 <NA>      2020
##  9     2     1 RODRIGUEZ Mary         2  3600 England   2019
## 10     2     1 <NA>      <NA>        NA  3784 <NA>      2020
## # … with 36 more rows
…
names tells us what the names of the columns selected are

.direction tells the direction in which the filling goes

So fill(select_if(., ~ any(is.na(.))) %>% names(), .direction = 'down') means that for the dataframe, we select each column which has some NA in it and we obtain their names. In these columns, the empty cells are filled by the value of the cell above (since the direction is “down”).

Finally, we want the first three columns to be hhid, indid and year, and we create a ID column named hhind which is just the union of hhid and indid.

base_created2 <- base_created2 %>%
  select(hhid, indid, year, everything()) %>%
  unite(hhind, c(hhid, indid), sep = "", remove = FALSE) 
base_created2

## # A tibble: 46 x 9
##    hhind  hhid indid  year surname   name    gender  wage location
##    <chr> <dbl> <dbl> <dbl> <chr>     <chr>    <dbl> <dbl> <chr>   
##  1 11        1     1  2019 BROWN     Robert       1  2000 France  
##  2 11        1     1  2020 BROWN     Robert       1  2136 France  
##  3 12        1     2  2019 JONES     Michael      1  2100 France  
##  4 12        1     2  2020 JONES     Michael      1  2362 France  
##  5 13        1     3  2019 MILLER    William      1  2300 France  
##  6 13        1     3  2020 MILLER    William      1  2384 France  
##  7 14        1     4  2019 DAVIS     David        1  1800 France  
##  8 14        1     4  2020 DAVIS     David        1  2090 France  
##  9 21        2     1  2019 RODRIGUEZ Mary         2  3600 England 
## 10 21        2     1  2020 RODRIGUEZ Mary         2  3784 England 
## # … with 36 more rows
…
